module gitlab.com/gusanmaz/twigger

go 1.16

require (
	github.com/ChimeraCoder/anaconda v2.0.0+incompatible
	github.com/ChimeraCoder/tokenbucket v0.0.0-20131201223612-c5a927568de7 // indirect
	github.com/azr/backoff v0.0.0-20160115115103-53511d3c7330 // indirect
	github.com/dghubble/go-twitter v0.0.0-20201011215211-4b180d0cc78d
	github.com/dustin/go-jsonpointer v0.0.0-20160814072949-ba0abeacc3dc // indirect
	github.com/dustin/gojson v0.0.0-20160307161227-2e71ec9dd5ad // indirect
	github.com/gabriel-vasile/mimetype v1.2.0
	github.com/garyburd/go-oauth v0.0.0-20180319155456-bca2e7f09a17 // indirect
	golang.org/x/net v0.0.0-20210226172049-e18ecbb05110 // indirect
	gopkg.in/yaml.v2 v2.4.0
)
